<?xml version="1.0" encoding="UTF-8" standalone="no"?>
<svg width="300px" height="600px" viewBox="0 0 300 600" version="1.1" xmlns="http://www.w3.org/2000/svg" xmlns:xlink="http://www.w3.org/1999/xlink">
    <!-- Generator: Sketch 3.8.3 (29802) - http://www.bohemiancoding.com/sketch -->
    <title>facebook</title>
    <desc>Created with Sketch.</desc>
    <defs></defs>
    <g id="Page-1" stroke="none" stroke-width="1" fill="none" fill-rule="evenodd">
        <g id="facebook">
            <rect id="Rectangle-path" fill="#FC8B7C" x="0" y="0" width="300" height="300"></rect>
            <path d="M131.4,228.3 L131.4,154.8 L112,154.8 L112,128.3 L131.4,128.3 L131.4,105.7 C131.4,88 142.9,71.6 169.3,71.6 C180,71.6 187.9,72.6 187.9,72.6 L187.3,97.3 C187.3,97.3 179.2,97.2 170.4,97.2 C160.9,97.2 159.3,101.6 159.3,108.9 L159.3,128.2 L188,128.2 L186.8,154.7 L159.3,154.7 L159.3,228.2 L131.4,228.2 L131.4,228.3 L131.4,228.3 Z" id="Shape" fill="#394148"></path>
            <rect id="Rectangle-path" fill="#394148" x="0" y="300" width="300" height="300"></rect>
            <path d="M131.4,528.3 L131.4,454.8 L112,454.8 L112,428.3 L131.4,428.3 L131.4,405.7 C131.4,388 142.9,371.6 169.3,371.6 C180,371.6 187.9,372.6 187.9,372.6 L187.3,397.3 C187.3,397.3 179.2,397.2 170.4,397.2 C160.9,397.2 159.3,401.6 159.3,408.9 L159.3,428.2 L188,428.2 L186.8,454.7 L159.3,454.7 L159.3,528.2 L131.4,528.2 L131.4,528.3 L131.4,528.3 Z" id="Shape" fill="#FC8B7C"></path>
        </g>
    </g>
</svg>