<?xml version="1.0" encoding="UTF-8" standalone="no"?>
<svg width="301px" height="602px" viewBox="0 0 301 602" version="1.1" xmlns="http://www.w3.org/2000/svg" xmlns:xlink="http://www.w3.org/1999/xlink">
    <!-- Generator: Sketch 3.8.3 (29802) - http://www.bohemiancoding.com/sketch -->
    <title>twitter</title>
    <desc>Created with Sketch.</desc>
    <defs></defs>
    <g id="Page-1" stroke="none" stroke-width="1" fill="none" fill-rule="evenodd">
        <g id="twitter">
            <rect id="Rectangle-path" fill="#FC8B7C" x="0" y="0" width="301" height="301"></rect>
            <rect id="Rectangle-path" fill="#394148" x="0" y="301" width="301" height="301"></rect>
            <path d="M212,119 C212.1,120.4 212.1,121.7 212.1,123.1 C212.1,165 180.2,213.3 121.9,213.3 C104,213.3 87.3,208.1 73.3,199.1 C75.8,199.4 78.3,199.5 80.9,199.5 C95.8,199.5 109.4,194.4 120.3,185.9 C106.4,185.7 94.7,176.5 90.7,163.9 C92.6,164.3 94.6,164.5 96.7,164.5 C99.6,164.5 102.4,164.1 105.1,163.4 C90.6,160.5 79.7,147.7 79.7,132.3 L79.7,131.9 C84,134.3 88.9,135.7 94.1,135.9 C85.6,130.2 80,120.5 80,109.5 C80,103.7 81.6,98.3 84.3,93.6 C99.9,112.8 123.3,125.4 149.7,126.7 C149.2,124.4 148.9,122 148.9,119.5 C148.9,102 163.1,87.8 180.6,87.8 C189.7,87.8 198,91.6 203.7,97.8 C210.9,96.4 217.7,93.7 223.8,90.1 C221.4,97.5 216.4,103.7 209.9,107.6 C216.3,106.8 222.4,105.1 228.1,102.6 C223.5,108.9 218.2,114.5 212,119 L212,119 Z" id="Shape" fill="#394148"></path>
            <path d="M212,419.9 C212.1,421.3 212.1,422.6 212.1,424 C212.1,465.9 180.2,514.2 121.9,514.2 C104,514.2 87.3,509 73.3,500 C75.8,500.3 78.3,500.4 80.9,500.4 C95.8,500.4 109.4,495.3 120.3,486.8 C106.4,486.6 94.7,477.4 90.7,464.8 C92.6,465.2 94.6,465.4 96.7,465.4 C99.6,465.4 102.4,465 105.1,464.3 C90.6,461.4 79.7,448.6 79.7,433.2 L79.7,432.8 C84,435.2 88.9,436.6 94.1,436.8 C85.6,431.1 80,421.4 80,410.4 C80,404.6 81.6,399.2 84.3,394.5 C99.9,413.7 123.3,426.3 149.7,427.6 C149.2,425.3 148.9,422.9 148.9,420.4 C148.9,402.9 163.1,388.7 180.6,388.7 C189.7,388.7 198,392.5 203.7,398.7 C210.9,397.3 217.7,394.6 223.8,391 C221.4,398.4 216.4,404.6 209.9,408.5 C216.3,407.7 222.4,406 228.1,403.5 C223.5,409.9 218.2,415.4 212,419.9 L212,419.9 Z" id="Shape" fill="#FC8B7C"></path>
        </g>
    </g>
</svg>