<?xml version="1.0" encoding="UTF-8" standalone="no"?>
<svg width="301px" height="602px" viewBox="0 0 301 602" version="1.1" xmlns="http://www.w3.org/2000/svg" xmlns:xlink="http://www.w3.org/1999/xlink">
    <!-- Generator: Sketch 3.8.3 (29802) - http://www.bohemiancoding.com/sketch -->
    <title>youtube</title>
    <desc>Created with Sketch.</desc>
    <defs></defs>
    <g id="Page-1" stroke="none" stroke-width="1" fill="none" fill-rule="evenodd">
        <g id="youtube">
            <rect id="Rectangle-path" fill="#FC8B7C" x="0" y="0" width="301" height="301"></rect>
            <rect id="Rectangle-path" fill="#333333" x="0" y="301" width="301" height="301"></rect>
            <path d="M247.6,406.2 C243.8,390.9 236.6,385 223.4,382.9 C215.8,381.8 179.3,380.3 150.4,380.3 L150.5,380.3 C121.5,380.3 85.1,381.7 77.5,382.9 C64.3,385 57.2,390.9 53.3,406.2 C52,411.3 50.2,439.5 50.2,450.2 L50.2,452.6 C50.2,463.3 52,491.5 53.3,496.6 C57.1,511.9 64.3,517.8 77.5,519.9 C85.1,521 121.6,522.5 150.5,522.5 L150.4,522.5 C179.4,522.5 215.8,521.1 223.4,519.9 C236.6,517.8 243.7,511.9 247.6,496.6 C248.9,491.5 250.7,463.3 250.7,452.6 L250.7,450.2 C250.7,439.5 248.9,411.4 247.6,406.2 L247.6,406.2 Z" id="Shape" fill="#FFFFFF"></path>
            <path d="M247.6,406.2 C243.8,390.9 236.6,385 223.4,382.9 C215.8,381.8 179.3,380.3 150.4,380.3 L150.5,380.3 C121.5,380.3 85.1,381.7 77.5,382.9 C64.3,385 57.2,390.9 53.3,406.2 C52,411.3 50.2,439.5 50.2,450.2 L50.2,452.6 C50.2,463.3 52,491.5 53.3,496.6 C57.1,511.9 64.3,517.8 77.5,519.9 C85.1,521 121.6,522.5 150.5,522.5 L150.4,522.5 C179.4,522.5 215.8,521.1 223.4,519.9 C236.6,517.8 243.7,511.9 247.6,496.6 C248.9,491.5 250.7,463.3 250.7,452.6 L250.7,450.2 C250.7,439.5 248.9,411.4 247.6,406.2 L247.6,406.2 Z" id="Shape" stroke="#FFFFFF"></path>
            <polygon id="Shape" fill="#333333" points="129.7 422.7 182.9 450.4 129.7 479.6"></polygon>
            <rect id="Rectangle-path" fill="#394148" x="0" y="301" width="301" height="301"></rect>
            <path d="M247.6,105.3 C243.8,90 236.6,84.1 223.4,82 C215.8,80.9 179.3,79.4 150.4,79.4 L150.5,79.4 C121.5,79.4 85.1,80.8 77.5,82 C64.3,84.1 57.2,90 53.3,105.3 C52,110.4 50.2,138.6 50.2,149.3 L50.2,151.7 C50.2,162.4 52,190.6 53.3,195.7 C57.1,211 64.3,216.9 77.5,219 C85.1,220.1 121.6,221.6 150.5,221.6 L150.4,221.6 C179.4,221.6 215.8,220.2 223.4,219 C236.6,216.9 243.7,211 247.6,195.7 C248.9,190.6 250.7,162.4 250.7,151.7 L250.7,149.3 C250.7,138.6 248.9,110.4 247.6,105.3 L247.6,105.3 Z" id="Shape" fill="#394148"></path>
            <polygon id="Shape" fill="#FC8B7C" points="129.7 121.7 182.9 149.5 129.7 178.6"></polygon>
            <path d="M247.6,406.2 C243.8,390.9 236.6,385 223.4,382.9 C215.8,381.8 179.3,380.3 150.4,380.3 L150.5,380.3 C121.5,380.3 85.1,381.7 77.5,382.9 C64.3,385 57.2,390.9 53.3,406.2 C52,411.3 50.2,439.5 50.2,450.2 L50.2,452.6 C50.2,463.3 52,491.5 53.3,496.6 C57.1,511.9 64.3,517.8 77.5,519.9 C85.1,521 121.6,522.5 150.5,522.5 L150.4,522.5 C179.4,522.5 215.8,521.1 223.4,519.9 C236.6,517.8 243.7,511.9 247.6,496.6 C248.9,491.5 250.7,463.3 250.7,452.6 L250.7,450.2 C250.7,439.5 248.9,411.3 247.6,406.2 L247.6,406.2 Z" id="Shape" fill="#FC8B7C"></path>
            <polygon id="Shape" fill="#394148" points="129.7 422.6 182.9 450.4 129.7 479.5"></polygon>
        </g>
    </g>
</svg>